HW 03
…
tibble(covid_survey_longer)

# A tibble: 43,362 × 5
   response_id explanatory    explanatory_value response          response_value
         <dbl> <chr>          <fct>             <chr>                      <dbl>
 1           1 exp_profession Nursing           resp_safety                    5
 2           1 exp_profession Nursing           resp_confidence_…              2
 3           1 exp_profession Nursing           resp_concern_saf…              2
 4           1 exp_profession Nursing           resp_feel_safe_a…              1
 5           1 exp_profession Nursing           resp_will_recomm…              1
 6           1 exp_profession Nursing           resp_trust_info                1
 7           1 exp_flu_vax    Yes               resp_safety                    5
 8           1 exp_flu_vax    Yes               resp_confidence_…              2
 9           1 exp_flu_vax    Yes               resp_concern_saf…              2
10           1 exp_flu_vax    Yes               resp_feel_safe_a…              1
# ℹ 43,352 more rows
# viewing to verify everything is alright, removing nulls because otherwise it doesn't work
covid_survey_summary_stats_by_group <- covid_survey_longer |> 
  mutate(response_value = as.numeric(response_value)) |>
  group_by(explanatory, explanatory_value, response) |> 
  summarise(
    mean=mean(response_value, na.rm=TRUE),
    low=quantile(response_value, .1, na.rm=TRUE),
    high=quantile(response_value,.9, na.rm=TRUE)  )

`summarise()` has grouped output by 'explanatory', 'explanatory_value'. You can
override using the `.groups` argument.

covid_survey_summary_stats_by_group

# A tibble: 120 × 6
# Groups:   explanatory, explanatory_value [20]
   explanatory explanatory_value response                 mean   low  high
   <chr>       <fct>             <chr>                   <dbl> <dbl> <dbl>
 1 exp_age_bin <20               resp_concern_safety      3.35     2   4.4
 2 exp_age_bin <20               resp_confidence_science  1.65     1   2.4
 3 exp_age_bin <20               resp_feel_safe_at_work   1.71     1   3.8
 4 exp_age_bin <20               resp_safety              1.41     1   2  
 5 exp_age_bin <20               resp_trust_info          1.41     1   2  
 6 exp_age_bin <20               resp_will_recommend      1.35     1   1.8
 7 exp_age_bin >30               resp_concern_safety      3.01     1   5  
 8 exp_age_bin >30               resp_confidence_science  1.71     1   3  
 9 exp_age_bin >30               resp_feel_safe_at_work   1.77     1   4  
10 exp_age_bin >30               resp_safety              1.85     1   4  
# ℹ 110 more rows
…
Bind the two data frames of summary statistics you created covid_survey_summary_stats_all and covid_survey_summary_stats_by_group together by row. Name the resulting data frame covid_survey_summary_stats. It should look like the following:

# merging both row wise 
covid_survey_summary_stats <- bind_rows(covid_survey_summary_stats_all, covid_survey_summary_stats_by_group)

covid_survey_summary_stats

# A tibble: 126 × 6
   response                 mean   low  high explanatory explanatory_value
   <chr>                   <dbl> <dbl> <dbl> <chr>       <chr>            
 1 resp_concern_safety      3.28     1   5   All         ""               
 2 resp_confidence_science  1.43     1   2   All         ""               
 3 resp_feel_safe_at_work   1.35     1   2   All         ""               
 4 resp_safety              2.03     1   5   All         ""               
 5 resp_trust_info          1.40     1   2   All         ""               
 6 resp_will_recommend      1.21     1   2   All         ""               
 7 resp_concern_safety      3.35     2   4.4 exp_age_bin "<20"            
 8 resp_confidence_science  1.65     1   2.4 exp_age_bin "<20"            
 9 resp_feel_safe_at_work   1.71     1   3.8 exp_age_bin "<20"            
10 resp_safety              1.41     1   2   exp_age_bin "<20"            
# ℹ 116 more rows
…
